<?xml version="1.0" encoding="UTF-8"?>
<svg width="72px" height="79px" viewBox="0 0 72 79" version="1.1" xmlns="http://www.w3.org/2000/svg" xmlns:xlink="http://www.w3.org/1999/xlink">
    <!-- Generator: Sketch 41 (35326) - http://www.bohemiancoding.com/sketch -->
    <title>Icon</title>
    <desc>Created with Sketch.</desc>
    <defs>
        <linearGradient x1="17.5334821%" y1="-8.3719308%" x2="71.9991629%" y2="100%" id="linearGradient-1">
            <stop stop-color="#61D4F5" offset="0%"></stop>
            <stop stop-color="#4564DC" offset="100%"></stop>
        </linearGradient>
        <linearGradient x1="50%" y1="0%" x2="50%" y2="100%" id="linearGradient-2">
            <stop stop-color="#61D4F5" offset="0%"></stop>
            <stop stop-color="#4564DC" offset="100%"></stop>
        </linearGradient>
        <linearGradient x1="50%" y1="0%" x2="50%" y2="100%" id="linearGradient-3">
            <stop stop-color="#818181" offset="0%"></stop>
            <stop stop-color="#4A4A4A" offset="100%"></stop>
        </linearGradient>
    </defs>
    <g id="Главная" stroke="none" stroke-width="1" fill="none" fill-rule="evenodd">
        <g transform="translate(-358.000000, -2168.000000)" id="Услуги">
            <g transform="translate(359.000000, 2069.000000)">
                <g id="Переоборудование" transform="translate(0.000000, 99.000000)">
                    <g id="Icon">
                        <g id="+-copy-2" transform="translate(45.000000, 59.000000)" fill="#E7E7E7">
                            <rect id="Rectangle-416" x="3" y="0" width="2" height="8" rx="1"></rect>
                            <rect id="Rectangle-416-Copy" transform="translate(4.000000, 4.000000) rotate(-270.000000) translate(-4.000000, -4.000000) " x="3" y="0" width="2" height="8" rx="1"></rect>
                        </g>
                        <g id="+-copy-3" transform="translate(47.000000, 26.000000)" fill="#E7E7E7">
                            <rect id="Rectangle-416" x="3" y="0" width="2" height="8" rx="1"></rect>
                            <rect id="Rectangle-416-Copy" transform="translate(4.000000, 4.000000) rotate(-270.000000) translate(-4.000000, -4.000000) " x="3" y="0" width="2" height="8" rx="1"></rect>
                        </g>
                        <rect id="Rectangle-416-Copy" fill="#E7E7E7" transform="translate(28.000000, 52.000000) rotate(-270.000000) translate(-28.000000, -52.000000) " x="27" y="49" width="2" height="6" rx="1"></rect>
                        <circle id="Oval-26-Copy-3" fill="#E7E7E7" cx="13" cy="34" r="2"></circle>
                        <g id="Circle">
                            <g id="Arrow">
                                <path d="M35,8 C15.6700338,8 0,23.6700338 0,43 C0,62.3299662 15.6700338,78 35,78 L35,78 C54.3299662,78 70,62.3299662 70,43 C70,28.3850809 61.0422163,15.8623643 48.3175484,10.6227498" id="Oval-29" stroke="url(#linearGradient-1)" stroke-width="2" stroke-linecap="round" stroke-linejoin="round"></path>
                                <path d="M24.1384692,15.0266023 C12.9387678,19.3783136 5,30.2620575 5,43 C5,59.5685425 18.4314575,73 35,73 C51.5685425,73 65,59.5685425 65,43 C65,30.4729265 57.3218997,19.7391694 46.4150415,15.2480712" id="Oval-29-Copy" stroke="#CECECE" stroke-linecap="round" stroke-linejoin="round"></path>
                                <path d="M36.1375692,7.22335565 L30.0219991,1.10778552 C29.6325667,0.718353163 29.001437,0.720388412 28.6109127,1.1109127 C28.2176657,1.50415966 28.2189883,2.13320189 28.6077855,2.52199909 L34.2338591,8.14807262 L28.6077855,13.7741462 C28.2189883,14.1629434 28.2176657,14.7919856 28.6109127,15.1852325 C29.001437,15.5757568 29.6325667,15.5777921 30.0219991,15.1883597 L36.1375692,9.0727896 C36.2281404,9.02625477 36.3131612,8.96501338 36.3890873,8.8890873 C36.5944005,8.68377407 36.6921597,8.41418641 36.6833746,8.14807262 C36.6921597,7.88195884 36.5944005,7.61237118 36.3890873,7.40705795 C36.3131612,7.33113187 36.2281404,7.26989048 36.1375692,7.22335565 Z" id="Rectangle-422" fill="url(#linearGradient-2)"></path>
                            </g>
                        </g>
                        <g id="Lightning" transform="translate(24.000000, 19.000000)">
                            <path d="M15.92864,2.93984 L2.496896,25.181312 C1.679168,26.53472 2.29952,27.631232 3.878528,27.631232 L12.70592,27.631232 C14.28704,27.631232 15.14432,28.840448 14.62112,30.332864 L8.218496,48.593408 C7.695296,50.086784 7.976192,50.22464 8.844992,48.90464 L25.461824,23.640896 C26.330624,22.318784 25.75328,21.249536 24.17312,21.249536 L13.51424,21.249536 C11.93312,21.249536 11.049728,20.030912 11.537408,18.528128 L16.52288,3.21248 C17.012672,1.708544 16.74752,1.587584 15.92864,2.93984 L15.92864,2.93984 Z" id="Shape-Copy-6" fill="#E9E9E9"></path>
                            <path d="M13.92864,0.93984 L0.496896,23.181312 C-0.320832,24.53472 0.29952,25.631232 1.878528,25.631232 L10.70592,25.631232 C12.28704,25.631232 13.14432,26.840448 12.62112,28.332864 L6.218496,46.593408 C5.695296,48.086784 5.976192,48.22464 6.844992,46.90464 L23.461824,21.640896 C24.330624,20.318784 23.75328,19.249536 22.17312,19.249536 L11.51424,19.249536 C9.93312,19.249536 9.049728,18.030912 9.537408,16.528128 L14.52288,1.21248 C15.012672,-0.291456 14.74752,-0.412416 13.92864,0.93984 L13.92864,0.93984 Z" id="Shape" stroke="url(#linearGradient-3)"></path>
                        </g>
                    </g>
                </g>
            </g>
        </g>
    </g>
</svg>